{
  "content":[
    {
      "reversal":"false",
      "merchantName":"XATB DAVR BANK CHILONZOR F",
      "merchant":90510010593,
      "orgdev":0,
      "city":"",
      "street":"",
      "resp":-1,
      "utime":92338,
      "credit":"false",
      "utrnno":6515549632,
      "transType":"700",
      "bankDate":"",
      "reqamt":10100000,
      "terminal":13223,
      "udate":20190203,
      "hpan":"860031***3905"
    },
    {
      "reversal":"true",
      "merchantName":"MILLIY BANK MBRC",
      "merchant":900230115,
      "orgdev":0,
      "city":"",
      "street":"",
      "resp":-1,
      "utime":152357,
      "credit":"false",
      "utrnno":-6508900356,
      "transType":"683",
      "bankDate":"",
      "reqamt":201010,
      "terminal":91000336,
      "udate":20190201,
      "hpan":"860031***3905"
    },
    {
      "reversal":"true",
      "merchantName":"MILLIY BANK MBRC",
      "merchant":900230115,
      "orgdev":0,
      "city":"",
      "street":"",
      "resp":-1,
      "utime":152336,
      "credit":"false",
      "utrnno":-6508885174,
      "transType":"683",
      "bankDate":"",
      "reqamt":100510,
      "terminal":91000336,
      "udate":20190201,
      "hpan":"860031***3905"
    },
    {
      "reversal":"true",
      "merchantName":"MILLIY BANK MBRC",
      "merchant":900230115,
      "orgdev":0,
      "city":"",
      "street":"",
      "resp":-1,
      "utime":152317,
      "credit":"false",
      "utrnno":-6508878160,
      "transType":"683",
      "bankDate":"",
      "reqamt":201010,
      "terminal":91000336,
      "udate":20190201,
      "hpan":"860031***3905"
    },
    {
      "reversal":"false",
      "merchantName":"UNITEL MCHJ  BEEPUL",
      "merchant":90317744,
      "orgdev":0,
      "city":"",
      "street":"",
      "resp":-1,
      "utime":131754,
      "credit":"false",
      "utrnno":6509250366,
      "transType":"683",
      "bankDate":"",
      "reqamt":1400000,
      "terminal":97000229,
      "udate":20190201,
      "hpan":"860002***1157"
    },
    {
      "reversal":"false",
      "merchantName":"MILLIY BANK MBRC",
      "merchant":900230115,
      "orgdev":0,
      "city":"",
      "street":"",
      "resp":-1,
      "utime":130629,
      "credit":"true",
      "utrnno":6509204131,
      "transType":"760",
      "bankDate":"",
      "reqamt":100010,
      "terminal":91000336,
      "udate":20190201,
      "hpan":"860002***1157"
    },
    {
      "reversal":"false",
      "merchantName":"MILLIY BANK MBRC",
      "merchant":900230115,
      "orgdev":0,
      "city":"",
      "street":"",
      "resp":-1,
      "utime":130629,
      "credit":"false",
      "utrnno":6509204127,
      "transType":"683",
      "bankDate":"",
      "reqamt":100510,
      "terminal":91000336,
      "udate":20190201,
      "hpan":"860031***3905"
    },
    {
      "reversal":"false",
      "merchantName":"MILLIY BANK MBRC",
      "merchant":900230115,
      "orgdev":0,
      "city":"",
      "street":"",
      "resp":-1,
      "utime":124036,
      "credit":"true",
      "utrnno":6509084026,
      "transType":"760",
      "bankDate":"",
      "reqamt":1000010,
      "terminal":91000253,
      "udate":20190201,
      "hpan":"860002***1157"
    },
    {
      "reversal":"false",
      "merchantName":"MILLIY BANK MBRC",
      "merchant":900230115,
      "orgdev":0,
      "city":"",
      "street":"",
      "resp":-1,
      "utime":124036,
      "credit":"false",
      "utrnno":6509084017,
      "transType":"683",
      "bankDate":"",
      "reqamt":1005010,
      "terminal":91000253,
      "udate":20190201,
      "hpan":"860031***3905"
    },
    {
      "reversal":"false",
      "merchantName":"MILLIY BANK MBRC",
      "merchant":900230115,
      "orgdev":0,
      "city":"",
      "street":"",
      "resp":-1,
      "utime":123348,
      "credit":"true",
      "utrnno":6509048225,
      "transType":"760",
      "bankDate":"",
      "reqamt":1000020,
      "terminal":91000336,
      "udate":20190201,
      "hpan":"860002***1157"
    },
    {
      "reversal":"false",
      "merchantName":"MILLIY BANK MBRC",
      "merchant":900230115,
      "orgdev":0,
      "city":"",
      "street":"",
      "resp":-1,
      "utime":123348,
      "credit":"false",
      "utrnno":6509048208,
      "transType":"683",
      "bankDate":"",
      "reqamt":1005020,
      "terminal":91000336,
      "udate":20190201,
      "hpan":"860031***3905"
    },
    {
      "reversal":"false",
      "merchantName":"MILLIY BANK MBRC",
      "merchant":900230115,
      "orgdev":0,
      "city":"",
      "street":"",
      "resp":-1,
      "utime":123141,
      "credit":"false",
      "utrnno":6509036822,
      "transType":"683",
      "bankDate":"",
      "reqamt":1005010,
      "terminal":91000336,
      "udate":20190201,
      "hpan":"860031***3905"
    },
    {
      "reversal":"false",
      "merchantName":"MILLIY BANK MBRC",
      "merchant":900230115,
      "orgdev":0,
      "city":"",
      "street":"",
      "resp":-1,
      "utime":123141,
      "credit":"true",
      "utrnno":6509036832,
      "transType":"760",
      "bankDate":"",
      "reqamt":1000010,
      "terminal":91000336,
      "udate":20190201,
      "hpan":"860002***1157"
    },
    {
      "reversal":"false",
      "merchantName":"MILLIY BANK MBRC",
      "merchant":900230115,
      "orgdev":0,
      "city":"",
      "street":"",
      "resp":-1,
      "utime":122932,
      "credit":"false",
      "utrnno":6509024427,
      "transType":"683",
      "bankDate":"",
      "reqamt":1005000,
      "terminal":91000336,
      "udate":20190201,
      "hpan":"860031***3905"
    },
    {
      "reversal":"false",
      "merchantName":"MILLIY BANK MBRC",
      "merchant":900230115,
      "orgdev":0,
      "city":"",
      "street":"",
      "resp":-1,
      "utime":122932,
      "credit":"true",
      "utrnno":6509024435,
      "transType":"760",
      "bankDate":"",
      "reqamt":1000000,
      "terminal":91000336,
      "udate":20190201,
      "hpan":"860002***1157"
    },
    {
      "reversal":"false",
      "merchantName":"\"ASIA ALLIANCE BANK\" MOBILE BAN",
      "merchant":105737013,
      "orgdev":0,
      "city":"",
      "street":"",
      "resp":-1,
      "utime":122628,
      "credit":"false",
      "utrnno":6509006826,
      "transType":"683",
      "bankDate":"",
      "reqamt":100000,
      "terminal":92800322,
      "udate":20190201,
      "hpan":"860031***3905"
    },
    {
      "reversal":"false",
      "merchantName":"\"ASIA ALLIANCE BANK\" MOBILE BAN",
      "merchant":105737013,
      "orgdev":0,
      "city":"",
      "street":"",
      "resp":-1,
      "utime":121822,
      "credit":"false",
      "utrnno":6508959542,
      "transType":"683",
      "bankDate":"",
      "reqamt":50000,
      "terminal":92800322,
      "udate":20190201,
      "hpan":"860031***3905"
    },
    {
      "reversal":"false",
      "merchantName":"MILLIY BANK MBRC",
      "merchant":900230115,
      "orgdev":0,
      "city":"",
      "street":"",
      "resp":-1,
      "utime":120815,
      "credit":"false",
      "utrnno":6508900356,
      "transType":"683",
      "bankDate":"",
      "reqamt":201010,
      "terminal":91000336,
      "udate":20190201,
      "hpan":"860031***3905"
    },
    {
      "reversal":"false",
      "merchantName":"MILLIY BANK MBRC",
      "merchant":900230115,
      "orgdev":0,
      "city":"",
      "street":"",
      "resp":-1,
      "utime":120530,
      "credit":"false",
      "utrnno":6508885174,
      "transType":"683",
      "bankDate":"",
      "reqamt":100510,
      "terminal":91000336,
      "udate":20190201,
      "hpan":"860031***3905"
    },
    {
      "reversal":"false",
      "merchantName":"MILLIY BANK MBRC",
      "merchant":900230115,
      "orgdev":0,
      "city":"",
      "street":"",
      "resp":-1,
      "utime":120412,
      "credit":"false",
      "utrnno":6508878160,
      "transType":"683",
      "bankDate":"",
      "reqamt":201010,
      "terminal":91000336,
      "udate":20190201,
      "hpan":"860031***3905"
    }
  ],
  "number":0,
  "totalPages":3,
  "last":"false",
  "result":"0",
  "first":"true",
  "sort":"",
  "size":20,
  "numberOfElements":20,
  "msg":"",
  "totalElements":43
}